﻿Code;Description
10-10;Fight In Progress
10-11;Dog Case
10-12;Stand By (Stop)
10-13;Weather-Road Report
10-14;Prowler Report
10-15;Civil Disturbance
10-16;Domestic Problem
10-17;Meet Complainant
10-25;Report in Person (Meet)
10-26;Detaining Subject, Expedite
10-27;(Drivers) License Information
10-28;Vehicle Registration Information
10-29;Check for Wanted
10-31;Crime in Progress
10-32;Man with Gun
10-33;Emergency
10-34;Riot
10-35;Major Crime Alert
10-37;(Investigate) Suspicious Vehicle
10-38;Stopping Suspicious Vehicle
10-45;Animal Carcass at ___
10-46;Assist Motorist
10-47;Emergency Road Repair at ___
10-48;Traffic Standard Repair at ___
10-49;Traffic Light Out at ___
10-50;Accident (F-Fire, PI-Personal Injury, PD-Property Damage)
10-51;Wrecker Needed
10-52;Ambulance Needed
10-53;Road Blocked at ___
10-54;Livestock on Highway
10-55;Intoxicated Driver
10-56;Intoxicated Pedestrian
10-57;Hit and Run (F-Fire, PI-Personal Injury, PD-Property Damage)
10-58;Traffic Violation
10-59;Convoy or Escort
10-60;Squad in Vicinity
10-61;Personnel in Area
10-70;Fire Alarm
10-71;Advise Nature of Fire
10-72;Report Progress on Fire
10-73;Smoke Report
10-79;Notify Coroner
10-80;Chase in Progress
10-81;Breatherlizer Report
10-89;Bomb Threat
10-90;Bank Alarm at ___
10-91;Pick Up Prisoner / Subject
10-92;Improperly Parked Vehicle
10-93;Blockade
10-94;Drag Racing
10-95;Prisoner / Subject in Custody
10-96;Mental Subject
10-98;Prison / Jail Break
10-99;Wanted / Stolen Indicated